Christine Hou - Crime Data in Los Angeles
…
Replace empty string (““) and non-sense characters into unknown category (”X”).

vic_race = data %>%
  mutate(Date.Rptd = mdy(sub("(\\d{2}/\\d{2}/\\d{4}).*", "\\1", Date.Rptd)),
         Vict.Descent = ifelse(Vict.Descent == "-"|Vict.Descent == "", "X", Vict.Descent)) %>% 
  mutate(Year = year(Date.Rptd)) %>%
  arrange(Date.Rptd) %>%
  select(Crm.Cd, Vict.Descent, Year) %>%
  group_by(Vict.Descent, Year) %>%
  summarise(cases = sum(Crm.Cd), .groups = "drop")
vic_race

# A tibble: 76 × 3
   Vict.Descent  Year    cases
   <chr>        <dbl>    <int>
 1 A             2020  2080590
 2 A             2021  2065644
 3 A             2022  2511865
 4 A             2023  2022616
 5 B             2020 14012192
 6 B             2021 15036117
 7 B             2022 16800639
 8 B             2023 12957315
 9 C             2020   152231
10 C             2021   329543
# ℹ 66 more rows
…
